// room script file



function room_AfterFadeIn()
{
  
  {
  
    
    Wait(2);
    
    aMenu.Play();
    gOpciones.Y = 200;
    gOpciones.X = 800;
    gInicio.Y = 200;
    gInicio.X = 800;
    gInicio.Visible = true;
    mouse.Mode = eModeWalkto;   
   }

}



function hHotspot1_MouseMove()
{
mouse.Mode = eModeWalkto;
}
